The Foundation Series - Random Forests
…
    Published

      January 6, 2021

References:

Machine Learning Basics - Random Forest at Shirin’s Playground

Penguin Random Forest Model withrandomForest

Using the penguins dataset and Random Forest Classification.

penguins

# A tibble: 344 × 8
   species island    bill_length_mm bill_depth_mm flipper_…¹ body_…² sex    year
   <fct>   <fct>              <dbl>         <dbl>      <int>   <int> <fct> <int>
 1 Adelie  Torgersen           39.1          18.7        181    3750 male   2007
 2 Adelie  Torgersen           39.5          17.4        186    3800 fema…  2007
 3 Adelie  Torgersen           40.3          18          195    3250 fema…  2007
 4 Adelie  Torgersen           NA            NA           NA      NA <NA>   2007
 5 Adelie  Torgersen           36.7          19.3        193    3450 fema…  2007
 6 Adelie  Torgersen           39.3          20.6        190    3650 male   2007
 7 Adelie  Torgersen           38.9          17.8        181    3625 fema…  2007
 8 Adelie  Torgersen           39.2          19.6        195    4675 male   2007
 9 Adelie  Torgersen           34.1          18.1        193    3475 <NA>   2007
10 Adelie  Torgersen           42            20.2        190    4250 <NA>   2007
# … with 334 more rows, and abbreviated variable names ¹​flipper_length_mm,
#   ²​body_mass_g
…
Using broom on the penguin model

penguin_split

<Training/Testing/Total>
<199/134/333>

penguin_split %>% broom::tidy()

# A tibble: 333 × 2
     Row Data    
   <int> <chr>   
 1     1 Analysis
 2     2 Analysis
 3     4 Analysis
 4     5 Analysis
 5     7 Analysis
 6     9 Analysis
 7    10 Analysis
 8    11 Analysis
 9    12 Analysis
10    13 Analysis
# … with 323 more rows
…
penguin_test_baked

# A tibble: 134 × 8
   island    bill_length_mm bill_depth_mm flipper_…¹ body_…² sex    year species
   <fct>              <dbl>         <dbl>      <dbl>   <dbl> <fct> <dbl> <fct>  
 1 Torgersen         -0.675        0.424      -0.426  -1.19  fema… -1.28 Adelie 
 2 Torgersen         -0.931        0.323      -1.42   -0.723 fema… -1.28 Adelie 
 3 Torgersen         -0.529        0.221      -1.35   -1.25  fema… -1.28 Adelie 
 4 Torgersen         -1.75         0.627      -1.21   -1.10  fema… -1.28 Adelie 
 5 Biscoe            -1.48         1.03       -0.854  -0.506 fema… -1.28 Adelie 
 6 Biscoe            -1.06         0.475      -1.14   -0.319 male  -1.28 Adelie 
 7 Biscoe            -0.950        0.0178     -1.50   -0.506 male  -1.28 Adelie 
 8 Biscoe            -0.620        0.729      -1.28   -0.816 male  -1.28 Adelie 
 9 Biscoe            -0.639        0.881      -1.50   -0.319 male  -1.28 Adelie 
10 Dream             -0.822       -0.236      -1.64   -1.19  fema… -1.28 Adelie 
# … with 124 more rows, and abbreviated variable names ¹​flipper_length_mm,
#   ²​body_mass_g
…
This has created the recipe() and prepped it too. We now need to apply it to our datasets:

Take training data and bake() it to prepare it for modelling.

Do the same for the testing set.

iris_training_baked <- 
  iris_split %>% 
  training() %>% 
  bake(iris_recipe,.)
iris_training_baked

# A tibble: 90 × 4
   Sepal.Length Sepal.Width Petal.Width Species   
          <dbl>       <dbl>       <dbl> <fct>     
 1      -0.759        2.41      -1.48   setosa    
 2      -0.878        1.02      -1.35   setosa    
 3       0.307       -1.08       0.193  virginica 
 4      -0.759        1.02      -1.35   setosa    
 5       1.14        -0.616      0.193  versicolor
 6      -1.47         0.782     -1.22   setosa    
 7      -0.522        1.95      -1.10   setosa    
 8      -0.0487      -1.08      -0.0644 versicolor
 9       2.20        -0.150      1.35   virginica 
10       0.780       -0.150      1.22   virginica 
# … with 80 more rows

iris_testing_baked <- 
  iris_split %>% 
  testing() %>% 
  bake(iris_recipe,.)
iris_testing_baked 

# A tibble: 60 × 4
   Sepal.Length Sepal.Width Petal.Width Species
          <dbl>       <dbl>       <dbl> <fct>  
 1      -1.35         0.316       -1.35 setosa 
 2      -0.522        1.48        -1.35 setosa 
 3      -1.23        -0.150       -1.48 setosa 
 4      -1.83        -0.150       -1.48 setosa 
 5      -0.0487       2.18        -1.35 setosa 
 6      -0.167        1.71        -1.22 setosa 
 7      -0.878        1.71        -1.22 setosa 
 8      -0.522        0.782       -1.35 setosa 
 9      -0.878        1.48        -1.10 setosa 
10      -1.35         0.316       -1.35 setosa 
# … with 50 more rows
…
