The Foundation Series - The Grammar of Networks
…
Key function:

tbl_graph(): (aka “tibble graph”). Key arguments: nodes, edges and directed. Note this is a very versatile command and can take many input forms, such as data structures that result from other packages. Type ?tbl_graph in the Console and see the Usage section.

ga <- tbl_graph(nodes = grey_nodes, 
                edges = grey_edges, 
                directed = FALSE)
ga

# A tbl_graph: 54 nodes and 57 edges
#
# An undirected simple graph with 4 components
#
# A tibble: 54 × 7
  name               sex   race  birthyear position  season sign  
  <chr>              <chr> <chr>     <dbl> <chr>      <dbl> <chr> 
1 Addison Montgomery F     White      1967 Attending      1 Libra 
2 Adele Webber       F     Black      1949 Non-Staff      2 Leo   
3 Teddy Altman       F     White      1969 Attending      6 Pisces
4 Amelia Shepherd    F     White      1981 Attending      7 Libra 
5 Arizona Robbins    F     White      1976 Attending      5 Leo   
6 Rebecca Pope       F     White      1975 Non-Staff      3 Gemini
# ℹ 48 more rows
#
# A tibble: 57 × 4
   from    to weight type    
  <int> <int>  <dbl> <chr>   
1     5    47      2 friends 
2    21    47      4 benefits
3     5    46      1 friends 
# ℹ 54 more rows
…
  # Node with  the most connections?
  mutate(degree = centrality_degree(mode = c("in"))) %>% 
  filter(degree > 0) %>% 
  
  activate(edges) %>% 
  # "Busiest" edge?
  mutate(betweenness = centrality_edge_betweenness())

# A tbl_graph: 54 nodes and 57 edges
#
# An undirected simple graph with 4 components
#
# A tibble: 57 × 5
   from    to weight type     betweenness
  <int> <int>  <dbl> <chr>          <dbl>
1     5    47      2 friends         20.3
2    21    47      4 benefits        44.7
3     5    46      1 friends         39  
4     5    41      1 friends         66.3
5    18    41      6 friends         39  
6    21    41     12 benefits        91.5
# ℹ 51 more rows
#
# A tibble: 54 × 8
  name               sex   race  birthyear position  season sign   degree
  <chr>              <chr> <chr>     <dbl> <chr>      <dbl> <chr>   <dbl>
1 Addison Montgomery F     White      1967 Attending      1 Libra       3
2 Adele Webber       F     Black      1949 Non-Staff      2 Leo         1
3 Teddy Altman       F     White      1969 Attending      6 Pisces      4
# ℹ 51 more rows
…
