The Foundation Series - Random Forests
…
      Published

        January 6, 2021

References:

Machine Learning Basics - Random Forest at Shirin’s Playground

Penguin Random Forest Model withrandomForest

Using the penguins dataset and Random Forest Classification.

penguins

# A tibble: 344 × 8
   species island    bill_length_mm bill_depth_mm flipper_…¹ body_…² sex    year
   <fct>   <fct>              <dbl>         <dbl>      <int>   <int> <fct> <int>
 1 Adelie  Torgersen           39.1          18.7        181    3750 male   2007
 2 Adelie  Torgersen           39.5          17.4        186    3800 fema…  2007
 3 Adelie  Torgersen           40.3          18          195    3250 fema…  2007
 4 Adelie  Torgersen           NA            NA           NA      NA <NA>   2007
 5 Adelie  Torgersen           36.7          19.3        193    3450 fema…  2007
 6 Adelie  Torgersen           39.3          20.6        190    3650 male   2007
 7 Adelie  Torgersen           38.9          17.8        181    3625 fema…  2007
 8 Adelie  Torgersen           39.2          19.6        195    4675 male   2007
 9 Adelie  Torgersen           34.1          18.1        193    3475 <NA>   2007
10 Adelie  Torgersen           42            20.2        190    4250 <NA>   2007
# … with 334 more rows, and abbreviated variable names ¹​flipper_length_mm,
#   ²​body_mass_g
…
Using broom on the penguin model

penguin_split

<Training/Testing/Total>
<199/134/333>

penguin_split %>% broom::tidy()

# A tibble: 333 × 2
     Row Data    
   <int> <chr>   
 1     1 Analysis
 2     2 Analysis
 3     4 Analysis
 4     6 Analysis
 5     8 Analysis
 6     9 Analysis
 7    10 Analysis
 8    11 Analysis
 9    12 Analysis
10    13 Analysis
# … with 323 more rows
…
penguin_test_baked

# A tibble: 134 × 8
   island    bill_length_mm bill_depth_mm flipper…¹ body_m…² sex    year species
   <fct>              <dbl>         <dbl>     <dbl>    <dbl> <fct> <dbl> <fct>  
 1 Torgersen         -0.675        0.424     -0.426 -1.19    fema… -1.28 Adelie 
 2 Torgersen         -0.858        1.74      -0.782 -0.692   male  -1.28 Adelie 
 3 Torgersen         -0.876        1.24      -0.426  0.581   male  -1.28 Adelie 
 4 Torgersen          0.367        2.20      -0.497 -0.00876 male  -1.28 Adelie 
 5 Biscoe            -0.950        0.0178    -1.50  -0.506   male  -1.28 Adelie 
 6 Biscoe            -0.639        0.373     -0.997 -1.25    fema… -1.28 Adelie 
 7 Biscoe            -0.639        0.881     -1.50  -0.319   male  -1.28 Adelie 
 8 Dream             -1.24         0.475     -1.64  -0.381   male  -1.28 Adelie 
 9 Dream             -0.566        0.881     -1.21  -0.381   male  -1.28 Adelie 
10 Dream             -1.39        -0.0837    -0.426 -1.10    fema… -1.28 Adelie 
# … with 124 more rows, and abbreviated variable names ¹​flipper_length_mm,
#   ²​body_mass_g
…
This has created the recipe() and prepped it too. We now need to apply it to our datasets:

Take training data and bake() it to prepare it for modelling.

Do the same for the testing set.

iris_training_baked <- 
  iris_split %>% 
  training() %>% 
  bake(iris_recipe,.)
iris_training_baked

# A tibble: 90 × 4
   Sepal.Length Sepal.Width Petal.Width Species   
          <dbl>       <dbl>       <dbl> <fct>     
 1        1.29       0.191       0.442  versicolor
 2        2.30      -0.0478      1.54   virginica 
 3       -1.23      -0.0478     -1.35   setosa    
 4       -0.852      0.909      -1.35   setosa    
 5       -0.474     -1.00        0.0291 versicolor
 6        0.914     -0.0478      0.304  versicolor
 7       -0.979      1.87       -1.07   setosa    
 8        0.409     -0.287       0.167  versicolor
 9        0.157     -0.0478      0.855  virginica 
10        0.157     -0.765       0.580  versicolor
# … with 80 more rows

iris_testing_baked <- 
  iris_split %>% 
  testing() %>% 
  bake(iris_recipe,.)
iris_testing_baked 

# A tibble: 60 × 4
   Sepal.Length Sepal.Width Petal.Width Species
          <dbl>       <dbl>       <dbl> <fct>  
 1       -1.48       0.430        -1.35 setosa 
 2       -0.600      2.10         -1.07 setosa 
 3       -1.36      -0.0478       -1.48 setosa 
 4       -1.99      -0.0478       -1.48 setosa 
 5       -0.222      3.30         -1.07 setosa 
 6       -0.979      1.87         -1.21 setosa 
 7       -0.600      0.909        -1.35 setosa 
 8       -0.979      1.63         -1.07 setosa 
 9       -1.36       0.909        -1.35 setosa 
10       -1.10       0.909        -1.07 setosa 
# … with 50 more rows
…
