The Foundation Series - 🕔 Time Series
…
Syntax: objectName <- ts(data, start, end, frequency), where,

data : represents the data vector

start : represents the first observation in time series

end : represents the last observation in time series

frequency : represents number of observations per unit time. For example 1=annual, 4=quarterly, 12=monthly, etc.

We will pick simple numerical vector data variable from trees:

trees

# A tibble: 31 × 3
   Girth Height Volume
   <dbl>  <dbl>  <dbl>
 1   8.3     70   10.3
 2   8.6     65   10.3
 3   8.8     63   10.2
 4  10.5     72   16.4
 5  10.7     81   18.8
 6  10.8     83   19.7
 7  11       66   15.6
 8  11       75   18.2
 9  11.1     80   22.6
10  11.2     75   19.9
# … with 21 more rows
…
Read this data in:

births_2000_2014 <- read_csv("data/US_births_2000-2014_SSA.csv")

# # This data goes up to 2003, but the previous data starts at 2000, so we'll
# # remove 2000-2003 from here
# births_1994_1999 <- read_csv("data/US_births_1994-2003_CDC_NCHS.csv") %>% 
#   filter(year < 2000)

births_2000_2014

# A tibble: 5,479 × 5
    year month date_of_month day_of_week births
   <dbl> <dbl>         <dbl>       <dbl>  <dbl>
 1  2000     1             1           6   9083
 2  2000     1             2           7   8006
 3  2000     1             3           1  11363
 4  2000     1             4           2  13032
 5  2000     1             5           3  12558
 6  2000     1             6           4  12466
 7  2000     1             7           5  12516
 8  2000     1             8           6   8934
 9  2000     1             9           7   7949
10  2000     1            10           1  11668
# … with 5,469 more rows
…
tsibble format data contains three main components:

- an index variable that defines time;

- a set of key variables, usually categorical, that define sets of observations, over time

- a set of quantitative variables, that represent the quantities that vary over time ( i.e index)

The package tsibbledata contains several ready made tsibble format data. Run data(package = "tsibbledata") in your Console to find out about these. Let us try PBS which is a dataset containing Monthly Medicare prescription data in Australia.

data("PBS")
PBS

# A tibble: 67,596 × 9
      Month Concession   Type        ATC1  ATC1_desc ATC2  ATC2_…¹ Scripts  Cost
      <mth> <chr>        <chr>       <chr> <chr>     <chr> <chr>     <dbl> <dbl>
 1 1991 Jul Concessional Co-payments A     Alimenta… A01   STOMAT…   18228 67877
 2 1991 Aug Concessional Co-payments A     Alimenta… A01   STOMAT…   15327 57011
 3 1991 Sep Concessional Co-payments A     Alimenta… A01   STOMAT…   14775 55020
 4 1991 Oct Concessional Co-payments A     Alimenta… A01   STOMAT…   15380 57222
 5 1991 Nov Concessional Co-payments A     Alimenta… A01   STOMAT…   14371 52120
 6 1991 Dec Concessional Co-payments A     Alimenta… A01   STOMAT…   15028 54299
 7 1992 Jan Concessional Co-payments A     Alimenta… A01   STOMAT…   11040 39753
 8 1992 Feb Concessional Co-payments A     Alimenta… A01   STOMAT…   15165 54405
 9 1992 Mar Concessional Co-payments A     Alimenta… A01   STOMAT…   16898 61108
10 1992 Apr Concessional Co-payments A     Alimenta… A01   STOMAT…   18141 65356
# … with 67,586 more rows, and abbreviated variable name ¹​ATC2_desc
…
This basic plot is quite messy. We can use dplyr functions such as mutate(), filter(), select() and summarise() to work with tsibble objects. ( There are specialized functions in the tsibble to do similar things with the index ( i.e time) variable, which we will see presently)

Let us first see how many observations there are for each combo of keys:

PBS %>% dplyr::count(ATC1, ATC2, Concession, Type)

# A tibble: 336 × 5
   ATC1  ATC2  Concession   Type            n
   <chr> <chr> <chr>        <chr>       <int>
 1 A     A01   Concessional Co-payments   204
 2 A     A01   Concessional Safety net    204
 3 A     A01   General      Co-payments   204
 4 A     A01   General      Safety net    204
 5 A     A02   Concessional Co-payments   204
 6 A     A02   Concessional Safety net    204
 7 A     A02   General      Co-payments   204
 8 A     A02   General      Safety net    204
 9 A     A03   Concessional Co-payments   204
10 A     A03   Concessional Safety net    204
# … with 326 more rows
…
Finally, it may be a good idea to convert the tibble into a tsibble to leverage some of functions that tsibble offers:

births_tsibble <- births_2000_2014 %>% 
  mutate(date = lubridate::make_date(year = year,
                                     month = month,
                                     day = date_of_month)) %>%
  
  # drop year month day since we have date
  select(date, births) %>% 
  tsibble::as_tsibble(index = date) # Time Variable

births_tsibble

# A tibble: 5,479 × 2
   date       births
   <date>      <dbl>
 1 2000-01-01   9083
 2 2000-01-02   8006
 3 2000-01-03  11363
 4 2000-01-04  13032
 5 2000-01-05  12558
 6 2000-01-06  12466
 7 2000-01-07  12516
 8 2000-01-08   8934
 9 2000-01-09   7949
10 2000-01-10  11668
# … with 5,469 more rows
…
Trend: A trend exists when there is a long-term increase or decrease in the data. It does not have to be linear. Sometimes we will refer to a trend as “changing direction”, when it might go from an increasing trend to a decreasing trend.

Seasonal: A seasonal pattern occurs when a time series is affected by seasonal factors such as the time of the year or the day of the week. Seasonality is always of a fixed and known period. The monthly sales of drugs ( with the PBD data ) shows seasonality which is induced partly by the change in the cost of the drugs at the end of the calendar year.

Cyclic: A cycle occurs when the data exhibit rises and falls that are not of a fixed frequency. These fluctuations are usually due to economic conditions, and are often related to the “business cycle”. The duration of these fluctuations is usually at least 2 years.

Let us try to find and plot these patterns in Time Series.

births_STL_yearly <- births_tsibble %>% 
  fabletools::model(STL(births ~ season(period = "year")))

fabletools::components(births_STL_yearly)

# A tibble: 5,479 × 7
   .model                       date       births  trend seaso…¹ remai…² seaso…³
   <chr>                        <date>      <dbl>  <dbl>   <dbl>   <dbl>   <dbl>
 1 "STL(births ~ season(period… 2000-01-01   9083 11312.  -579.   -1650.   9662.
 2 "STL(births ~ season(period… 2000-01-02   8006 11312. -3119.    -187.  11125.
 3 "STL(births ~ season(period… 2000-01-03  11363 11312. -1389.    1440.  12752.
 4 "STL(births ~ season(period… 2000-01-04  13032 11313.  -404.    2124.  13436.
 5 "STL(births ~ season(period… 2000-01-05  12558 11313.  -209.    1454.  12767.
 6 "STL(births ~ season(period… 2000-01-06  12466 11313.  -203.    1357.  12669.
 7 "STL(births ~ season(period… 2000-01-07  12516 11313.  -266.    1469.  12782.
 8 "STL(births ~ season(period… 2000-01-08   8934 11313.  -491.   -1888.   9425.
 9 "STL(births ~ season(period… 2000-01-09   7949 11313.  -326.   -3038.   8275.
10 "STL(births ~ season(period… 2000-01-10  11668 11313.   -75.8    431.  11744.
# … with 5,469 more rows, and abbreviated variable names ¹​season_year,
#   ²​remainder, ³​season_adjust
…
