The Foundation Series - Part of a Whole in R
…
Clearly this is messy…we will take the top 8 industries by emission and lump the rest into an other category:

ghg <- ghg %>% mutate(sub_sector = fct_lump(sub_sector, prop = 0.1))
ghg
#> # A tibble: 29 × 2
#>   sub_sector share
#>   <fct>      <dbl>
#> 1 Other       11.9
#> 2 Other        1.9
#> 3 Other        0.4
#> 4 Other        0.3
#> # … with 25 more rows
…
1.1.2 Distribution Plots

What Questions might we have, that we could answer with a Distribution?

Q.1 How many families based on the number of children?

# Convert the tally into a dataframe. See the difference!
family_count <- tally( ~ nkids | sex, data = Galton) %>% 
  as_tibble() %>% 
  
  # Convert nkids from char to int
  mutate( nkids = as.integer(nkids))
family_count
#> # A tibble: 24 × 3
#>   nkids sex       n
#>   <int> <chr> <int>
#> 1     1 F        15
#> 2     2 F        18
#> 3     3 F        31
#> 4     4 F        48
#> # … with 20 more rows
…
Q.6: Does the mean height of children in a family vary with the number of children in the family? ( family size)

mean( height ~ sex | nkids, data = Galton) %>% as_tibble() # not very inspiring!
#> # A tibble: 36 × 1
#>   value
#>   <dbl>
#> 1  64.3
#> 2  68.8
#> 3  63.9
#> 4  68.8
#> # … with 32 more rows
…
1.3 Case Study-3: A complete example

Here is a dataset from Jeremy Singer-Vine’s blog, Data Is Plural. This is a list of all books banned in schools across the US.

banned <- readxl::read_xlsx(path = "data/banned.xlsx",
                            sheet = "Sorted by Author & Title")
banned
#> # A tibble: 1,586 × 10
#>   Author     Title Type …¹ Secon…² Illus…³ Trans…⁴ State Distr…⁵ Date …⁶ Origi…⁷
#>   <chr>      <chr> <chr>   <chr>   <chr>   <chr>   <chr> <chr>   <chr>   <chr>  
#> 1 Àbíké-Íyí… Ace … Banned… <NA>    <NA>    <NA>    Flor… Indian… 44501   Admini…
#> 2 Acevedo, … Clap… Banned… <NA>    <NA>    <NA>    Penn… Centra… 44440   Admini…
#> 3 Acevedo, … The … Banned… <NA>    <NA>    <NA>    Flor… Indian… 44501   Admini…
#> 4 Acevedo, … The … Banned… <NA>    <NA>    <NA>    New … Marlbo… 44593   Admini…
#> # … with 1,582 more rows, and abbreviated variable names ¹​`Type of Ban`,
#> #   ²​`Secondary Author(s)`, ³​`Illustrator(s)`, ⁴​`Translator(s)`, ⁵​District,
#> #   ⁶​`Date of Challenge/Removal`, ⁷​`Origin of Challenge`
…
Let us try to answer this question: What is the count of banned books by type and by US state?

banned_by_state <- banned %>% group_by(State) %>% summarise(total = n()) %>% ungroup()
banned_by_state
#> # A tibble: 26 × 2
#>   State    total
#>   <chr>    <int>
#> 1 Alaska       1
#> 2 Arkansas     1
#> 3 Florida    204
#> 4 Georgia     13
#> # … with 22 more rows
…
