The Foundation Series in Quarto - Linear Models: Comparing Proportions
…
# Long form data with only dependent variables
mydata_long_y <- 
  mydata_wide %>% 
  select(-x) %>% 
  pivot_longer(., cols = c(y,y2), 
               names_to = "group", 
               values_to = "value")
mydata_wide

# A tibble: 50 × 3
    x[,1]  y[,1] y2[,1]
    <dbl>  <dbl>  <dbl>
 1  0.427  1.98   0.103
 2  0.444  1.27  -0.281
 3 -0.828 -0.944  0.624
 4 -0.799  0.103  5.43 
 5 -0.323  2.19   0.168
 6 -1.24   0.192 -0.549
 7 -1.36   4.81   0.309
 8  1.62   1.55  -0.990
 9 -0.292  3.36  -0.172
10 -1.25   1.92  -0.158
# … with 40 more rows

Show the Code
mydata_long

# A tibble: 150 × 2
   group value[,1]
   <chr>     <dbl>
 1 x         0.427
 2 y         1.98 
 3 y2        0.103
 4 x         0.444
 5 y         1.27 
 6 y2       -0.281
 7 x        -0.828
 8 y        -0.944
 9 y2        0.624
10 x        -0.799
# … with 140 more rows

Show the Code
mydata_long_y

# A tibble: 100 × 2
   group value[,1]
   <chr>     <dbl>
 1 y         1.98 
 2 y2        0.103
 3 y         1.27 
 4 y2       -0.281
 5 y        -0.944
 6 y2        0.624
 7 y         0.103
 8 y2        5.43 
 9 y         2.19 
10 y2        0.168
# … with 90 more rows
…
The confidence intervals for both the t.test and the lm model are identical.

t-test confidence intervals: -0.2683937, 0.8683937

linear model confidence intervals: -0.2683937, 0.8683937

So even though y has a mean of 0.3, the confidence intervals straddle zero, and hence we cannot reject the NULL hypothesis that the true population, of which y is a sample, could have mean=0.

Example

Show the Code
exam_grades

# A tibble: 233 × 6
   semester sex   exam1 exam2 exam3 course_grade
   <chr>    <chr> <dbl> <dbl> <dbl>        <dbl>
 1 2000-1   Man    84.5  69.5  86.5         76.3
 2 2000-1   Man    80    74    67           75.4
 3 2000-1   Man    56    70    71.5         67.1
 4 2000-1   Man    64    61    67.5         63.5
 5 2000-1   Man    90.5  72.5  75           72.4
 6 2000-1   Man    74    78.5  84.5         71.4
 7 2000-1   Man    60.5  44    58           56.1
 8 2000-1   Man    89    82    88           78.0
 9 2000-1   Woman  87.5  86.5  95           82.9
10 2000-1   Man    91    98    88           89.1
# … with 223 more rows
…
